\relax 
\citation{Budischak2013}
\@writefile{toc}{\contentsline {section}{\numberline {1}Introduction}{1}\protected@file@percent }
\citation{CARPS2015}
\citation{EEG2016}
\citation{China2018}
\citation{ReNew2017}
\citation{ParisClimate2015}
\citation{Nordhaus1994}
\citation{WorldBank2017}
\citation{PowerPack2017}
\citation{IEA2018}
\citation{Chao2011}
\citation{Sunar2018}
\citation{Kildegaard2008}
\citation{Dunn2011}
\citation{Budischak2013}
\citation{Miller2018}
\citation{Mieghem2003}
\citation{Jiang2014}
\citation{Kim2011}
\@writefile{toc}{\contentsline {section}{\numberline {2}Literature Review}{3}\protected@file@percent }
\citation{Netessine2017}
\citation{Netessine2017}
\citation{Kok2017}
\citation{Qi2015}
\citation{Luo2015}
\citation{Schill2011}
\citation{Netessine2015}
\citation{Muckstadt2004}
\@writefile{toc}{\contentsline {section}{\numberline {3}Model}{4}\protected@file@percent }
\citation{REIDS2017}
\citation{Taiwan2017}
\citation{Cordova2019}
\citation{SolarCentury2019}
\@writefile{toc}{\contentsline {subsection}{\numberline {3.1}Demand and price structure}{5}\protected@file@percent }
\@writefile{toc}{\contentsline {subsection}{\numberline {3.2}Generation and storage technology}{6}\protected@file@percent }
\@writefile{toc}{\contentsline {subsection}{\numberline {3.3}Objective Function}{6}\protected@file@percent }
\newlabel{ObjFuncFullShort}{{6}{8}}
\@writefile{toc}{\contentsline {paragraph}{Case 1:}{8}\protected@file@percent }
\@writefile{toc}{\contentsline {paragraph}{Case 2:}{8}\protected@file@percent }
\@writefile{toc}{\contentsline {paragraph}{Case 3:}{8}\protected@file@percent }
\@writefile{toc}{\contentsline {subsection}{\numberline {3.4}Joint Case}{8}\protected@file@percent }
\@writefile{toc}{\contentsline {subsubsection}{\numberline {3.4.1}Case 1 - Low generation}{8}\protected@file@percent }
\@writefile{toc}{\contentsline {subsubsection}{\numberline {3.4.2}Case 2 - Moderate generation}{9}\protected@file@percent }
\newlabel{TheoremCase2K}{{2}{9}}
\newlabel{TheoremCase2Q}{{3}{9}}
\@writefile{toc}{\contentsline {subsubsection}{\numberline {3.4.3}Case 3 - High generation}{10}\protected@file@percent }
\newlabel{subsectXDerivProperty}{{3.4.3}{10}}
\@writefile{toc}{\contentsline {subsection}{\numberline {3.5}Competitive Case}{11}\protected@file@percent }
\@writefile{toc}{\contentsline {subsubsection}{\numberline {3.5.1}Case 2 - Moderate Generation}{11}\protected@file@percent }
\newlabel{TheoremCPCase2K}{{5}{11}}
\citation{Debreu1952}
\citation{NREL2016}
\@writefile{toc}{\contentsline {subsubsection}{\numberline {3.5.2}Case 3 - High Generation}{12}\protected@file@percent }
\@writefile{toc}{\contentsline {section}{\numberline {4}Data \& Results}{12}\protected@file@percent }
\citation{NREL2018}
\citation{Larcher2015}
\citation{Irena2019}
\@writefile{toc}{\contentsline {subsection}{\numberline {4.1}Data origin and simulation}{13}\protected@file@percent }
\@writefile{lot}{\contentsline {table}{\numberline {1}{\ignorespaces Historic energy demand and price data from three markets}}{13}\protected@file@percent }
\newlabel{TabMarketData}{{1}{13}}
\@writefile{lot}{\contentsline {table}{\numberline {2}{\ignorespaces Storage technology and renewable generation data}}{13}\protected@file@percent }
\newlabel{TabStorageData}{{2}{13}}
\@writefile{lof}{\contentsline {figure}{\numberline {1}{\ignorespaces Simulated average daily profits for different capacity, storage configurations for ERCOT}}{14}\protected@file@percent }
\newlabel{Objective Function}{{1}{14}}
\@writefile{toc}{\contentsline {subsection}{\numberline {4.2}Substitutes vs. Complements}{14}\protected@file@percent }
\newlabel{subsectionXDeriv}{{4.2}{14}}
\@writefile{lof}{\contentsline {figure}{\numberline {2}{\ignorespaces Cross-derivative tests for substitutes vs. complements}}{14}\protected@file@percent }
\@writefile{lof}{\contentsline {subfigure}{\numberline{(a)}{\ignorespaces {\relax \fontsize {17.28}{22}\selectfont ERCOT}}}{14}\protected@file@percent }
\@writefile{lof}{\contentsline {subfigure}{\numberline{(b)}{\ignorespaces {\relax \fontsize {17.28}{22}\selectfont Germany}}}{14}\protected@file@percent }
\@writefile{lof}{\contentsline {subfigure}{\numberline{(c)}{\ignorespaces {\relax \fontsize {17.28}{22}\selectfont PJM}}}{14}\protected@file@percent }
\newlabel{Cross-Derivative test}{{2}{14}}
\@writefile{toc}{\contentsline {subsection}{\numberline {4.3}Storage results joint case}{15}\protected@file@percent }
\@writefile{lof}{\contentsline {figure}{\numberline {3}{\ignorespaces Joint optimization response function equilibrium}}{15}\protected@file@percent }
\@writefile{lof}{\contentsline {subfigure}{\numberline{(a)}{\ignorespaces {\relax \fontsize {17.28}{22}\selectfont ERCOT}}}{15}\protected@file@percent }
\@writefile{lof}{\contentsline {subfigure}{\numberline{(b)}{\ignorespaces {\relax \fontsize {17.28}{22}\selectfont Germany}}}{15}\protected@file@percent }
\@writefile{lof}{\contentsline {subfigure}{\numberline{(c)}{\ignorespaces {\relax \fontsize {17.28}{22}\selectfont PJM}}}{15}\protected@file@percent }
\newlabel{Joint Equilibrium}{{3}{15}}
\citation{SGIP2017}
\@writefile{toc}{\contentsline {subsection}{\numberline {4.4}Carbon tax and optimal results as a function of it - Impact on battery technology}{16}\protected@file@percent }
\citation{BMWI2017}
\@writefile{lof}{\contentsline {figure}{\numberline {4}{\ignorespaces Joint optimization equilibria under different emission prices}}{17}\protected@file@percent }
\@writefile{lof}{\contentsline {subfigure}{\numberline{(a)}{\ignorespaces {\relax \fontsize {17.28}{22}\selectfont ERCOT}}}{17}\protected@file@percent }
\@writefile{lof}{\contentsline {subfigure}{\numberline{(b)}{\ignorespaces {\relax \fontsize {17.28}{22}\selectfont Germany}}}{17}\protected@file@percent }
\@writefile{lof}{\contentsline {subfigure}{\numberline{(c)}{\ignorespaces {\relax \fontsize {17.28}{22}\selectfont PJM}}}{17}\protected@file@percent }
\newlabel{EmissionEquilibria}{{4}{17}}
\@writefile{toc}{\contentsline {subsection}{\numberline {4.5}Comparison of storage technologies}{17}\protected@file@percent }
\@writefile{lof}{\contentsline {figure}{\numberline {5}{\ignorespaces Joint optimization equilibria under different emission prices and storage technologies}}{18}\protected@file@percent }
\@writefile{lof}{\contentsline {subfigure}{\numberline{(a)}{\ignorespaces {\relax \fontsize {17.28}{22}\selectfont ERCOT}}}{18}\protected@file@percent }
\@writefile{lof}{\contentsline {subfigure}{\numberline{(b)}{\ignorespaces {\relax \fontsize {17.28}{22}\selectfont Germany}}}{18}\protected@file@percent }
\@writefile{lof}{\contentsline {subfigure}{\numberline{(c)}{\ignorespaces {\relax \fontsize {17.28}{22}\selectfont PJM}}}{18}\protected@file@percent }
\newlabel{TechnologyEquilibria}{{5}{18}}
\@writefile{toc}{\contentsline {subsection}{\numberline {4.6}Profitability of both storage technologies}{19}\protected@file@percent }
\@writefile{lof}{\contentsline {figure}{\numberline {6}{\ignorespaces Net daily profits of optimal capacity investment in hypothetical storage technologies in the ERCOT market}}{19}\protected@file@percent }
\@writefile{lof}{\contentsline {subfigure}{\numberline{(a)}{\ignorespaces {\relax \fontsize {17.28}{22}\selectfont \$0 emission tax}}}{19}\protected@file@percent }
\@writefile{lof}{\contentsline {subfigure}{\numberline{(b)}{\ignorespaces {\relax \fontsize {17.28}{22}\selectfont \$50 emission tax}}}{19}\protected@file@percent }
\@writefile{lof}{\contentsline {subfigure}{\numberline{(c)}{\ignorespaces {\relax \fontsize {17.28}{22}\selectfont \$100 emission tax}}}{19}\protected@file@percent }
\newlabel{Hypothetical Storage}{{6}{19}}
\@writefile{toc}{\contentsline {subsection}{\numberline {4.7}Renewable break-even at current prices and taxation}{20}\protected@file@percent }
\@writefile{lof}{\contentsline {figure}{\numberline {7}{\ignorespaces Net daily profits of optimal capacity investment given cheaper generation and storage cost with battery storage}}{20}\protected@file@percent }
\@writefile{lof}{\contentsline {subfigure}{\numberline{(a)}{\ignorespaces {\relax \fontsize {17.28}{22}\selectfont ERCOT}}}{20}\protected@file@percent }
\@writefile{lof}{\contentsline {subfigure}{\numberline{(b)}{\ignorespaces {\relax \fontsize {17.28}{22}\selectfont PJM}}}{20}\protected@file@percent }
\@writefile{lof}{\contentsline {subfigure}{\numberline{(c)}{\ignorespaces {\relax \fontsize {17.28}{22}\selectfont Germany}}}{20}\protected@file@percent }
\newlabel{CheaperTechnology_withBat}{{7}{20}}
\@writefile{lof}{\contentsline {figure}{\numberline {8}{\ignorespaces Net daily profits of optimal capacity investment given cheaper generation and storage cost with thermal storage}}{20}\protected@file@percent }
\@writefile{lof}{\contentsline {subfigure}{\numberline{(a)}{\ignorespaces {\relax \fontsize {17.28}{22}\selectfont ERCOT}}}{20}\protected@file@percent }
\@writefile{lof}{\contentsline {subfigure}{\numberline{(b)}{\ignorespaces {\relax \fontsize {17.28}{22}\selectfont PJM}}}{20}\protected@file@percent }
\@writefile{lof}{\contentsline {subfigure}{\numberline{(c)}{\ignorespaces {\relax \fontsize {17.28}{22}\selectfont Germany}}}{20}\protected@file@percent }
\newlabel{CheaperTechnology_withThermal}{{8}{20}}
\@writefile{toc}{\contentsline {subsection}{\numberline {4.8}Storage results competitive case}{21}\protected@file@percent }
\@writefile{lof}{\contentsline {figure}{\numberline {9}{\ignorespaces ERCOT existence of non-border-case equilibria under different transfer price combinations}}{21}\protected@file@percent }
\newlabel{Comp Equilibrium 2D}{{9}{21}}
\@writefile{lof}{\contentsline {figure}{\numberline {10}{\ignorespaces Low transfer prices}}{22}\protected@file@percent }
\newlabel{FigComEqLow}{{10}{22}}
\@writefile{lof}{\contentsline {figure}{\numberline {11}{\ignorespaces Medium transfer prices}}{22}\protected@file@percent }
\newlabel{FigComEqMed}{{11}{22}}
\@writefile{lof}{\contentsline {figure}{\numberline {12}{\ignorespaces High transfer prices}}{22}\protected@file@percent }
\newlabel{FigComEqHigh}{{12}{22}}
\@writefile{lof}{\contentsline {figure}{\numberline {13}{\ignorespaces All competitive outcomes for three different cases of region, storage technology and emission tax}}{22}\protected@file@percent }
\@writefile{lof}{\contentsline {subfigure}{\numberline{(a)}{\ignorespaces {\relax \fontsize {17.28}{22}\selectfont Germany, tax = \$0, Battery}}}{22}\protected@file@percent }
\@writefile{lof}{\contentsline {subfigure}{\numberline{(b)}{\ignorespaces {\relax \fontsize {17.28}{22}\selectfont PJM, tax = \$50, Thermal}}}{22}\protected@file@percent }
\@writefile{lof}{\contentsline {subfigure}{\numberline{(c)}{\ignorespaces {\relax \fontsize {17.28}{22}\selectfont ERCOT, tax = \$100, Battery}}}{22}\protected@file@percent }
\newlabel{Comp Equilibrium Possibilities}{{13}{22}}
\@writefile{toc}{\contentsline {section}{\numberline {5}Further research}{23}\protected@file@percent }
\bibstyle{chicago}
\bibdata{SummerPaperBib}
\bibcite{Netessine2017}{{1}{2017}{{Aflaki and Netessine}}{{Aflaki and Netessine}}}
\bibcite{Irena2019}{{2}{2019}{{Anuta et~al.}}{{Anuta, Ralon, and Taylor}}}
\bibcite{Netessine2015}{{3}{2014}{{Avci et~al.}}{{Avci, Girotra, and Netessine}}}
\bibcite{CARPS2015}{{4}{2015}{{Bill}}{{Bill}}}
\bibcite{BMWI2017}{{5}{2017}{{BMWi}}{{BMWi}}}
\bibcite{Budischak2013}{{6}{2013}{{Budischak et~al.}}{{Budischak, Sewell, Thomson, Mach, Veron, and Kempton}}}
\bibcite{EEG2016}{{7}{2016}{{Bundestag}}{{Bundestag}}}
\bibcite{Chao2011}{{8}{2011}{{Chao}}{{Chao}}}
\bibcite{REIDS2017}{{9}{2017}{{Choo}}{{Choo}}}
\bibcite{ParisClimate2015}{{10}{2015}{{Commission}}{{Commission}}}
\bibcite{IEA2018}{{11}{2018}{{Cozzi and Gould}}{{Cozzi and Gould}}}
\bibcite{Debreu1952}{{12}{1952}{{Debreu}}{{Debreu}}}
\bibcite{Dunn2011}{{13}{2011}{{Dunn et~al.}}{{Dunn, Kamath, and Tarascon}}}
\bibcite{NREL2018}{{14}{2018}{{Fu et~al.}}{{Fu, Remo, and Margolis}}}
\bibcite{WorldBank2017}{{15}{2017}{{Group}}{{Group}}}
\bibcite{Cordova2019}{{16}{2019}{{Holly}}{{Holly}}}
\bibcite{ReNew2017}{{17}{2017}{{IRENA}}{{IRENA}}}
\bibcite{Jiang2014}{{18}{2014}{{Jiang et~al.}}{{Jiang, Pham, Powell, Salas, and Scott}}}
\bibcite{Kildegaard2008}{{19}{2008}{{Kildegaard}}{{Kildegaard}}}
\bibcite{Kim2011}{{20}{2011}{{Kim and Powell}}{{Kim and Powell}}}
\bibcite{Kok2017}{{21}{2017}{{K\IeC {\"o}k et~al.}}{{K\IeC {\"o}k, Shang, and Yucel}}}
\bibcite{PowerPack2017}{{22}{2017}{{Koziol}}{{Koziol}}}
\bibcite{Larcher2015}{{23}{2015}{{Larcher and Tarascon}}{{Larcher and Tarascon}}}
\bibcite{Luo2015}{{24}{2015}{{Luo et~al.}}{{Luo, Meng, Dong, Zheng, Chen, and Wong}}}
\bibcite{Miller2018}{{25}{2018}{{Miller and Keith}}{{Miller and Keith}}}
\bibcite{Muckstadt2004}{{26}{2004}{{Muckstadt}}{{Muckstadt}}}
\bibcite{NREL2016}{{27}{2017}{{Musial et~al.}}{{Musial, Beiter, Schwabe, Tian, Stehly, Spitsen, Robertson, and Gevorgian}}}
\bibcite{Nordhaus1994}{{28}{1994}{{Nordhaus}}{{Nordhaus}}}
\bibcite{Taiwan2017}{{29}{2017}{{of~Economic~Affairs}}{{of~Economic~Affairs}}}
\bibcite{Qi2015}{{30}{2015}{{Qi et~al.}}{{Qi, Liang, and Shen}}}
\bibcite{Schill2011}{{31}{2011}{{Schill and Kemfert}}{{Schill and Kemfert}}}
\bibcite{SGIP2017}{{32}{2017}{{SGIP}}{{SGIP}}}
\bibcite{China2018}{{33}{2018}{{Shen}}{{Shen}}}
\bibcite{SolarCentury2019}{{34}{2019}{{Solarcentury}}{{Solarcentury}}}
\bibcite{Sunar2018}{{35}{2018}{{Sunar and Swaminathan}}{{Sunar and Swaminathan}}}
\bibcite{Mieghem2003}{{36}{2003}{{Van~Mieghem}}{{Van~Mieghem}}}
\@writefile{toc}{\contentsline {section}{Appendix \numberline {A}Objective Function Simplification}{25}\protected@file@percent }
\newlabel{ObjFuncSimplification}{{A}{25}}
\@writefile{toc}{\contentsline {section}{Appendix \numberline {B}Joint Objective Function Properties, Case 1}{26}\protected@file@percent }
\newlabel{JTCase1Properties}{{B}{26}}
\newlabel{JTC1ObjFunc}{{8}{26}}
\newlabel{JTC1PartQAppendix}{{9}{26}}
\newlabel{JTC1PartQ2}{{10}{26}}
\newlabel{JTC1PartK}{{11}{26}}
\newlabel{JTC1PartK2}{{12}{26}}
\newlabel{JTC1PartKQ}{{13}{26}}
\@writefile{toc}{\contentsline {section}{Appendix \numberline {C}Joint Objective Function Properties, Case 2}{26}\protected@file@percent }
\newlabel{JTCase2Properties}{{C}{26}}
\newlabel{JTC2ObjFunc}{{14}{26}}
\newlabel{JTC2PartQ}{{15}{26}}
\newlabel{JTC2PartQ2}{{16}{26}}
\newlabel{JTC2PartK}{{17}{26}}
\newlabel{JTC2PartK2}{{18}{26}}
\newlabel{JTC2PartKQ}{{19}{26}}
\@writefile{toc}{\contentsline {section}{Appendix \numberline {D}Joint Objective Function Properties, Case 3}{27}\protected@file@percent }
\newlabel{JTCase3Properties}{{D}{27}}
\newlabel{JTC3ObjFunc}{{20}{27}}
\newlabel{JTC3PartQ}{{21}{27}}
\newlabel{JTC3PartQ2}{{22}{27}}
\newlabel{JTC3PartQ2Proof}{{23}{28}}
\newlabel{JTC3PartQ2Proof2}{{24}{28}}
\newlabel{JTC3PartK}{{25}{28}}
\newlabel{JTC3PartK2}{{26}{29}}
\newlabel{JTC3PartQK}{{27}{29}}
\newlabel{JTC3PartKQ}{{28}{29}}
\@writefile{toc}{\contentsline {section}{Appendix \numberline {E}Comp Objective Function Properties, Case 2}{30}\protected@file@percent }
\newlabel{CPCase2Properties}{{E}{30}}
\@writefile{toc}{\contentsline {paragraph}{Generation Investor Objective Function}{30}\protected@file@percent }
\newlabel{CPC2Gen}{{29}{30}}
\newlabel{CPC2GenPartQ}{{30}{30}}
\@writefile{toc}{\contentsline {paragraph}{Storage Investor Objective Function:}{30}\protected@file@percent }
\newlabel{CPC2Stor}{{31}{30}}
\newlabel{CPC2StorPartK}{{32}{30}}
\newlabel{CPC2GenPartQK}{{33}{30}}
\newlabel{CPC2StorPartKQ}{{34}{30}}
\@writefile{toc}{\contentsline {section}{Appendix \numberline {F}Comp Objective Function Properties, Case 3}{30}\protected@file@percent }
\newlabel{CPCase3Properties}{{F}{30}}
\@writefile{toc}{\contentsline {paragraph}{Generation Investor Objective Function}{30}\protected@file@percent }
\newlabel{CPC3Gen}{{35}{30}}
\newlabel{CPC3GenPartQ}{{36}{31}}
\newlabel{CPC3GenPartQ2}{{37}{31}}
\@writefile{toc}{\contentsline {subsection}{\numberline {F.1}Proof of competitive case 3's negative second partial derivative with respect to Q}{31}\protected@file@percent }
\newlabel{SecondDerivativeProofNegative}{{F.1}{31}}
\@writefile{toc}{\contentsline {paragraph}{Storage Investor Objective Function}{31}\protected@file@percent }
\newlabel{CPC3Stor}{{38}{31}}
\newlabel{CPC3StorPartK}{{39}{32}}
\newlabel{CPC3StorPartK2}{{40}{32}}
\@writefile{toc}{\contentsline {section}{Appendix \numberline {G}Competitive Result Graphs}{32}\protected@file@percent }
\newlabel{CompGraphs}{{G}{32}}
\@writefile{lof}{\contentsline {figure}{\numberline {14}{\ignorespaces Competitive equilibria border case analysis ERCOT and battery storage technology with different levels of emission tax}}{32}\protected@file@percent }
\@writefile{lof}{\contentsline {subfigure}{\numberline{(a)}{\ignorespaces {\relax \fontsize {17.28}{22}\selectfont tax = \$0}}}{32}\protected@file@percent }
\@writefile{lof}{\contentsline {subfigure}{\numberline{(b)}{\ignorespaces {\relax \fontsize {17.28}{22}\selectfont tax = \$50}}}{32}\protected@file@percent }
\@writefile{lof}{\contentsline {subfigure}{\numberline{(c)}{\ignorespaces {\relax \fontsize {17.28}{22}\selectfont tax = \$100}}}{32}\protected@file@percent }
\newlabel{CPGraphs ERCOT Battery}{{14}{32}}
\@writefile{lof}{\contentsline {figure}{\numberline {15}{\ignorespaces Competitive equilibria border case analysis for ERCOT and thermal storage technology with different levels of emission tax}}{33}\protected@file@percent }
\@writefile{lof}{\contentsline {subfigure}{\numberline{(a)}{\ignorespaces {\relax \fontsize {17.28}{22}\selectfont tax = \$0}}}{33}\protected@file@percent }
\@writefile{lof}{\contentsline {subfigure}{\numberline{(b)}{\ignorespaces {\relax \fontsize {17.28}{22}\selectfont tax = \$50}}}{33}\protected@file@percent }
\@writefile{lof}{\contentsline {subfigure}{\numberline{(c)}{\ignorespaces {\relax \fontsize {17.28}{22}\selectfont tax = \$100}}}{33}\protected@file@percent }
\newlabel{CPGraphs ERCOT Thermal}{{15}{33}}
\@writefile{lof}{\contentsline {figure}{\numberline {16}{\ignorespaces Competitive equilibria border case analysis for Germany and battery storage technology with different levels of emission tax}}{33}\protected@file@percent }
\@writefile{lof}{\contentsline {subfigure}{\numberline{(a)}{\ignorespaces {\relax \fontsize {17.28}{22}\selectfont tax = \$0}}}{33}\protected@file@percent }
\@writefile{lof}{\contentsline {subfigure}{\numberline{(b)}{\ignorespaces {\relax \fontsize {17.28}{22}\selectfont tax = \$50}}}{33}\protected@file@percent }
\@writefile{lof}{\contentsline {subfigure}{\numberline{(c)}{\ignorespaces {\relax \fontsize {17.28}{22}\selectfont tax = \$100}}}{33}\protected@file@percent }
\newlabel{CPGraphs GER Battery}{{16}{33}}
\@writefile{lof}{\contentsline {figure}{\numberline {17}{\ignorespaces Competitive equilibria border case analysis for Germany and thermal storage technology with different levels of emission tax}}{33}\protected@file@percent }
\@writefile{lof}{\contentsline {subfigure}{\numberline{(a)}{\ignorespaces {\relax \fontsize {17.28}{22}\selectfont tax = \$0}}}{33}\protected@file@percent }
\@writefile{lof}{\contentsline {subfigure}{\numberline{(b)}{\ignorespaces {\relax \fontsize {17.28}{22}\selectfont tax = \$50}}}{33}\protected@file@percent }
\@writefile{lof}{\contentsline {subfigure}{\numberline{(c)}{\ignorespaces {\relax \fontsize {17.28}{22}\selectfont tax = \$100}}}{33}\protected@file@percent }
\newlabel{CPGraphs GER Thermal}{{17}{33}}
\@writefile{lof}{\contentsline {figure}{\numberline {18}{\ignorespaces Competitive equilibria border case analysis for PJM and battery storage technology with different levels of emission tax}}{34}\protected@file@percent }
\@writefile{lof}{\contentsline {subfigure}{\numberline{(a)}{\ignorespaces {\relax \fontsize {17.28}{22}\selectfont tax = \$0}}}{34}\protected@file@percent }
\@writefile{lof}{\contentsline {subfigure}{\numberline{(b)}{\ignorespaces {\relax \fontsize {17.28}{22}\selectfont tax = \$50}}}{34}\protected@file@percent }
\@writefile{lof}{\contentsline {subfigure}{\numberline{(c)}{\ignorespaces {\relax \fontsize {17.28}{22}\selectfont tax = \$100}}}{34}\protected@file@percent }
\newlabel{CPGraphs PJM Battery}{{18}{34}}
\@writefile{lof}{\contentsline {figure}{\numberline {19}{\ignorespaces Competitive equilibria border case analysis for PJM and thermal storage technology with different levels of emission tax}}{34}\protected@file@percent }
\@writefile{lof}{\contentsline {subfigure}{\numberline{(a)}{\ignorespaces {\relax \fontsize {17.28}{22}\selectfont tax = \$0}}}{34}\protected@file@percent }
\@writefile{lof}{\contentsline {subfigure}{\numberline{(b)}{\ignorespaces {\relax \fontsize {17.28}{22}\selectfont tax = \$50}}}{34}\protected@file@percent }
\@writefile{lof}{\contentsline {subfigure}{\numberline{(c)}{\ignorespaces {\relax \fontsize {17.28}{22}\selectfont tax = \$100}}}{34}\protected@file@percent }
\newlabel{CPGraphs PJM Thermal}{{19}{34}}
\@writefile{lof}{\contentsline {figure}{\numberline {20}{\ignorespaces All competitive outcomes for ERCOT and battery storage technology with different levels of emission tax}}{34}\protected@file@percent }
\@writefile{lof}{\contentsline {subfigure}{\numberline{(a)}{\ignorespaces {\relax \fontsize {17.28}{22}\selectfont tax = \$0}}}{34}\protected@file@percent }
\@writefile{lof}{\contentsline {subfigure}{\numberline{(b)}{\ignorespaces {\relax \fontsize {17.28}{22}\selectfont tax = \$50}}}{34}\protected@file@percent }
\@writefile{lof}{\contentsline {subfigure}{\numberline{(c)}{\ignorespaces {\relax \fontsize {17.28}{22}\selectfont tax = \$100}}}{34}\protected@file@percent }
\newlabel{CPGraphs ERCOT Bat All}{{20}{34}}
\@writefile{lof}{\contentsline {figure}{\numberline {21}{\ignorespaces All competitive outcomes for ERCOT and thermal storage technology with different levels of emission tax}}{35}\protected@file@percent }
\@writefile{lof}{\contentsline {subfigure}{\numberline{(a)}{\ignorespaces {\relax \fontsize {17.28}{22}\selectfont tax = \$0}}}{35}\protected@file@percent }
\@writefile{lof}{\contentsline {subfigure}{\numberline{(b)}{\ignorespaces {\relax \fontsize {17.28}{22}\selectfont tax = \$50}}}{35}\protected@file@percent }
\@writefile{lof}{\contentsline {subfigure}{\numberline{(c)}{\ignorespaces {\relax \fontsize {17.28}{22}\selectfont tax = \$100}}}{35}\protected@file@percent }
\newlabel{CPGraphs ERCOT Thermal All}{{21}{35}}
\@writefile{lof}{\contentsline {figure}{\numberline {22}{\ignorespaces All competitive outcomes for Germany and battery storage technology with different levels of emission tax}}{35}\protected@file@percent }
\@writefile{lof}{\contentsline {subfigure}{\numberline{(a)}{\ignorespaces {\relax \fontsize {17.28}{22}\selectfont tax = \$0}}}{35}\protected@file@percent }
\@writefile{lof}{\contentsline {subfigure}{\numberline{(b)}{\ignorespaces {\relax \fontsize {17.28}{22}\selectfont tax = \$50}}}{35}\protected@file@percent }
\@writefile{lof}{\contentsline {subfigure}{\numberline{(c)}{\ignorespaces {\relax \fontsize {17.28}{22}\selectfont tax = \$100}}}{35}\protected@file@percent }
\newlabel{CPGraphs GER Bat All}{{22}{35}}
\@writefile{lof}{\contentsline {figure}{\numberline {23}{\ignorespaces All competitive outcomes for Germany and thermal storage technology with different levels of emission tax}}{35}\protected@file@percent }
\@writefile{lof}{\contentsline {subfigure}{\numberline{(a)}{\ignorespaces {\relax \fontsize {17.28}{22}\selectfont tax = \$0}}}{35}\protected@file@percent }
\@writefile{lof}{\contentsline {subfigure}{\numberline{(b)}{\ignorespaces {\relax \fontsize {17.28}{22}\selectfont tax = \$50}}}{35}\protected@file@percent }
\@writefile{lof}{\contentsline {subfigure}{\numberline{(c)}{\ignorespaces {\relax \fontsize {17.28}{22}\selectfont tax = \$100}}}{35}\protected@file@percent }
\newlabel{CPGraphs GER Thermal All}{{23}{35}}
\@writefile{lof}{\contentsline {figure}{\numberline {24}{\ignorespaces All competitive outcomes for PJM and battery storage technology with different levels of emission tax}}{35}\protected@file@percent }
\@writefile{lof}{\contentsline {subfigure}{\numberline{(a)}{\ignorespaces {\relax \fontsize {17.28}{22}\selectfont tax = \$0}}}{35}\protected@file@percent }
\@writefile{lof}{\contentsline {subfigure}{\numberline{(b)}{\ignorespaces {\relax \fontsize {17.28}{22}\selectfont tax = \$50}}}{35}\protected@file@percent }
\@writefile{lof}{\contentsline {subfigure}{\numberline{(c)}{\ignorespaces {\relax \fontsize {17.28}{22}\selectfont tax = \$100}}}{35}\protected@file@percent }
\newlabel{CPGraphs PJM Bat All}{{24}{35}}
\@writefile{lof}{\contentsline {figure}{\numberline {25}{\ignorespaces All competitive outcomes for PJM and thermal storage technology with different levels of emission tax}}{36}\protected@file@percent }
\@writefile{lof}{\contentsline {subfigure}{\numberline{(a)}{\ignorespaces {\relax \fontsize {17.28}{22}\selectfont tax = \$0}}}{36}\protected@file@percent }
\@writefile{lof}{\contentsline {subfigure}{\numberline{(b)}{\ignorespaces {\relax \fontsize {17.28}{22}\selectfont tax = \$50}}}{36}\protected@file@percent }
\@writefile{lof}{\contentsline {subfigure}{\numberline{(c)}{\ignorespaces {\relax \fontsize {17.28}{22}\selectfont tax = \$100}}}{36}\protected@file@percent }
\newlabel{CPGraphs PJM Thermal All}{{25}{36}}
\@writefile{toc}{\contentsline {section}{Appendix \numberline {H}Potential Additions}{37}\protected@file@percent }
\newlabel{PotentialAdditions}{{H}{37}}
\@writefile{toc}{\contentsline {paragraph}{Case 3 marginal effect of r}{37}\protected@file@percent }
\@writefile{toc}{\contentsline {paragraph}{Solar case to simplify battery - one period of charge one period of secure discharge?}{37}\protected@file@percent }
\newlabel{SolarObjFunc}{{41}{37}}
\newlabel{SolarPartQ}{{42}{37}}
\newlabel{SolarPartK}{{43}{37}}
\@writefile{toc}{\contentsline {subsubsection}{\numberline {H.0.1}The effect of generation intermittency on storage size}{37}\protected@file@percent }
\@writefile{lof}{\contentsline {figure}{\numberline {26}{\ignorespaces Total storage size based on r}}{38}\protected@file@percent }
\@writefile{lof}{\contentsline {subfigure}{\numberline{(a)}{\ignorespaces {\relax \fontsize {17.28}{22}\selectfont ERCOT}}}{38}\protected@file@percent }
\@writefile{lof}{\contentsline {subfigure}{\numberline{(b)}{\ignorespaces {\relax \fontsize {17.28}{22}\selectfont Germany}}}{38}\protected@file@percent }
\@writefile{lof}{\contentsline {subfigure}{\numberline{(c)}{\ignorespaces {\relax \fontsize {17.28}{22}\selectfont PJM}}}{38}\protected@file@percent }
\newlabel{Numerical test r marginal}{{26}{38}}
