\relax 
\@writefile{toc}{\contentsline {section}{\numberline {1}Research Question(s)}{1}\protected@file@percent }
\@writefile{toc}{\contentsline {section}{\numberline {2}Model changes}{1}\protected@file@percent }
\@writefile{toc}{\contentsline {section}{\numberline {3}Findings}{2}\protected@file@percent }
\@writefile{toc}{\contentsline {section}{\numberline {4}Questions}{2}\protected@file@percent }
