\relax 
\@writefile{toc}{\contentsline {section}{\numberline {1}Easiest model ever - quadratic penalty in k}{1}\protected@file@percent }
\@writefile{toc}{\contentsline {section}{\numberline {2}Penalty function, but renewables and merit order are completely unrelated}{1}\protected@file@percent }
\@writefile{toc}{\contentsline {section}{\numberline {3}Function that is to be molded into closed-form}{1}\protected@file@percent }
\@writefile{toc}{\contentsline {section}{\numberline {4}Binomial day model}{2}\protected@file@percent }
\@writefile{toc}{\contentsline {subsection}{\numberline {4.1}Proofing concavity}{2}\protected@file@percent }
\@writefile{toc}{\contentsline {subsection}{\numberline {4.2}Discrete $\rightarrow $ continuous}{3}\protected@file@percent }
\@writefile{toc}{\contentsline {subsection}{\numberline {4.3}Newsvendor - per Period}{4}\protected@file@percent }
\@writefile{toc}{\contentsline {subsection}{\numberline {4.4}Newsvendor - Houston 2018 example results}{5}\protected@file@percent }
\@writefile{toc}{\contentsline {subsection}{\numberline {4.5}Newsvendor - Germany 2018 example results}{5}\protected@file@percent }
\@writefile{toc}{\contentsline {subsection}{\numberline {4.6}Extensions}{6}\protected@file@percent }
\@writefile{toc}{\contentsline {section}{\numberline {5}MMPP/G/1/k model}{6}\protected@file@percent }
\@writefile{toc}{\contentsline {section}{\numberline {6}Generation Newsvendor}{6}\protected@file@percent }
\@writefile{toc}{\contentsline {subsection}{\numberline {6.1}Two point distribution}{6}\protected@file@percent }
\@writefile{toc}{\contentsline {section}{\numberline {7}Newsstand Model}{7}\protected@file@percent }
\@writefile{toc}{\contentsline {subsection}{\numberline {7.1}Profit function combined case}{8}\protected@file@percent }
\@writefile{toc}{\contentsline {subsection}{\numberline {7.2}Differentiation wrt Q}{8}\protected@file@percent }
\@writefile{toc}{\contentsline {subsection}{\numberline {7.3}Formal definition}{10}\protected@file@percent }
\@writefile{toc}{\contentsline {section}{\numberline {8}Newsstand with 2 - point demand and no discharge rate}{11}\protected@file@percent }
\@writefile{toc}{\contentsline {subsection}{\numberline {8.1}Differentiation 2 point}{11}\protected@file@percent }
\@writefile{toc}{\contentsline {subsection}{\numberline {8.2}Numerical check for substitute, compliments}{14}\protected@file@percent }
\@writefile{toc}{\contentsline {subsection}{\numberline {8.3}Numerical Checks for Best Response - Joint Case, with Discharge Rate}{16}\protected@file@percent }
\@writefile{toc}{\contentsline {subsection}{\numberline {8.4}Discharging Probability}{17}\protected@file@percent }
\@writefile{toc}{\contentsline {section}{\numberline {9}Newsstand with 2 - point demand and with discharge rate}{18}\protected@file@percent }
\@writefile{toc}{\contentsline {subsection}{\numberline {9.1}Derivatives}{18}\protected@file@percent }
\@writefile{toc}{\contentsline {subsection}{\numberline {9.2}Cross-Derivatives for compliments and substitutes}{20}\protected@file@percent }
\@writefile{toc}{\contentsline {subsection}{\numberline {9.3}Joint Optimal Cases}{21}\protected@file@percent }
\@writefile{toc}{\contentsline {section}{\numberline {10}Newsstand Model Competition}{22}\protected@file@percent }
\@writefile{toc}{\contentsline {subsection}{\numberline {10.1}Simple derivatives for both competitors}{22}\protected@file@percent }
\@writefile{toc}{\contentsline {section}{\numberline {11}Newsstand /w discharge rate \& g only}{25}\protected@file@percent }
\@writefile{toc}{\contentsline {subsection}{\numberline {11.1}Objective Function}{25}\protected@file@percent }
\@writefile{toc}{\contentsline {subsection}{\numberline {11.2}Derivatives}{25}\protected@file@percent }
\@writefile{toc}{\contentsline {section}{\numberline {12}Newsstand Model Competition - g only}{27}\protected@file@percent }
\@writefile{toc}{\contentsline {subsection}{\numberline {12.1}Derivatives for both competitors}{27}\protected@file@percent }
