\relax 
\citation{Budischak2013}
\@writefile{toc}{\contentsline {section}{\numberline {1}Introduction}{1}}
\citation{CARPS2015}
\citation{EEG2016}
\citation{China2018}
\citation{ReNew2017}
\citation{ParisClimate2015}
\citation{Nordhaus1994}
\citation{WorldBank2017}
\citation{PowerPack2017}
\citation{Kildegaard2008}
\citation{Chao2011}
\citation{Sunar2018}
\citation{Dunn2011}
\citation{Budischak2013}
\citation{Miller2018}
\citation{Jiang2014}
\citation{Kim2011}
\citation{Netessine2017}
\citation{Netessine2017}
\citation{Kok2017}
\@writefile{toc}{\contentsline {section}{\numberline {2}Literature Review}{3}}
\citation{Qi2015}
\citation{Luo2015}
\citation{Schill2011}
\citation{Netessine2015}
\citation{Muckstadt2004}
\citation{EEX2002}
\citation{EIA2015Wind}
\citation{Standler2011Blackout}
\citation{Shively2008PlantTypes}
\@writefile{toc}{\contentsline {section}{\numberline {3}Model - extended}{4}}
\citation{Dunn2011}
\citation{Tarjanna2008GenerationCost}
\citation{Netessine2017}
\citation{PGE2016TimeofUse}
\@writefile{lof}{\contentsline {figure}{\numberline {1}{\ignorespaces Electricity Demand Variability over Time}}{6}}
\newlabel{PeakDemand}{{1}{6}}
\@writefile{toc}{\contentsline {section}{\numberline {4}Model - simplified}{7}}
\@writefile{toc}{\contentsline {subsection}{\numberline {4.1}Storage modeling}{8}}
\@writefile{toc}{\contentsline {section}{\numberline {5}Data}{8}}
\@writefile{lof}{\contentsline {figure}{\numberline {2}{\ignorespaces Simulation results of storage impact on revenue/profit}}{9}}
\@writefile{lof}{\contentsline {subfigure}{\numberline{(a)}{\ignorespaces {Excl. storage cost}}}{9}}
\@writefile{lof}{\contentsline {subfigure}{\numberline{(b)}{\ignorespaces {Incl. storage cost}}}{9}}
\newlabel{BatterySimulation}{{2}{9}}
\bibstyle{informs2014}
\bibdata{OID940Bib}
\bibcite{Netessine2017}{{1}{2017}{{Aflaki \BIBand {} Netessine}}{{}}}
\bibcite{Netessine2015}{{2}{2014}{{Avci et~al.}}{{Avci, Girotra, \BIBand {} Netessine}}}
\bibcite{CARPS2015}{{3}{2015}{{Bill}}{{}}}
\bibcite{Budischak2013}{{4}{2013}{{Budischak et~al.}}{{Budischak, Sewell, Thomson, Mach, Veron, \BIBand {} Kempton}}}
\bibcite{EEG2016}{{5}{2016}{{Bundestag}}{{}}}
\bibcite{Chao2011}{{6}{2011}{{Chao}}{{}}}
\bibcite{ParisClimate2015}{{7}{2015}{{Commission et~al.}}{{}}}
\bibcite{Dunn2011}{{8}{2011}{{Dunn et~al.}}{{Dunn, Kamath, \BIBand {} Tarascon}}}
\bibcite{WorldBank2017}{{9}{2017}{{Group}}{{}}}
\bibcite{ReNew2017}{{10}{2017}{{IRENA}}{{}}}
\bibcite{Jiang2014}{{11}{2014}{{Jiang et~al.}}{{Jiang, Pham, Powell, Salas, \BIBand {} Scott}}}
\bibcite{Kildegaard2008}{{12}{2008}{{Kildegaard}}{{}}}
\bibcite{Kim2011}{{13}{2011}{{Kim \BIBand {} Powell}}{{}}}
\bibcite{Kok2017}{{14}{2017}{{K\IeC {\"o}k et~al.}}{{K\IeC {\"o}k, Shang, \BIBand {} Yucel}}}
\bibcite{PowerPack2017}{{15}{2017}{{Koziol}}{{}}}
\bibcite{Luo2015}{{16}{2015}{{Luo et~al.}}{{Luo, Meng, Dong, Zheng, Chen, \BIBand {} Wong}}}
\bibcite{EEX2002}{{17}{2002}{{Madlener \BIBand {} Kaufmann}}{{}}}
\bibcite{PGE2016TimeofUse}{{18}{2016}{{Malnight}}{{}}}
\bibcite{EIA2015Wind}{{19}{2015}{{Meyes}}{{}}}
\bibcite{Miller2018}{{20}{2018}{{Miller \BIBand {} Keith}}{{}}}
\bibcite{Muckstadt2004}{{21}{2004}{{Muckstadt}}{{}}}
\bibcite{Nordhaus1994}{{22}{1994}{{Nordhaus}}{{}}}
\bibcite{Qi2015}{{23}{2015}{{Qi et~al.}}{{Qi, Liang, \BIBand {} Shen}}}
\bibcite{Schill2011}{{24}{2011}{{Schill \BIBand {} Kemfert}}{{}}}
\bibcite{China2018}{{25}{2018}{{Shen}}{{}}}
\bibcite{Shively2008PlantTypes}{{26}{2008}{{Shively \BIBand {} Ferrare}}{{}}}
\bibcite{Standler2011Blackout}{{27}{2011}{{Standler}}{{}}}
\bibcite{Sunar2018}{{28}{2018}{{Sunar \BIBand {} Swaminathan}}{{}}}
\bibcite{Tarjanna2008GenerationCost}{{29}{2008}{{Tarjanne et~al.}}{{Tarjanne, Kivist{\"o} et~al.}}}
\@writefile{toc}{\contentsline {section}{\numberline {6}Variable Cheat Sheet}{11}}
