\relax 
\providecommand\hyper@newdestlabel[2]{}
\providecommand\HyperFirstAtBeginDocument{\AtBeginDocument}
\HyperFirstAtBeginDocument{\ifx\hyper@anchor\@undefined
\global\let\oldcontentsline\contentsline
\gdef\contentsline#1#2#3#4{\oldcontentsline{#1}{#2}{#3}}
\global\let\oldnewlabel\newlabel
\gdef\newlabel#1#2{\newlabelxx{#1}#2}
\gdef\newlabelxx#1#2#3#4#5#6{\oldnewlabel{#1}{{#2}{#3}}}
\AtEndDocument{\ifx\hyper@anchor\@undefined
\let\contentsline\oldcontentsline
\let\newlabel\oldnewlabel
\fi}
\fi}
\global\let\hyper@last\relax 
\gdef\HyperFirstAtBeginDocument#1{#1}
\providecommand\HyField@AuxAddToFields[1]{}
\providecommand\HyField@AuxAddToCoFields[2]{}
\bibstyle{apalike}
\citation{CARPS2015}
\citation{EEG2016}
\citation{China2018}
\@writefile{toc}{\contentsline {section}{\numberline {1}Overview}{1}{section.1}\protected@file@percent }
\@writefile{toc}{\contentsline {section}{\numberline {2}Description of Research Project}{1}{section.2}\protected@file@percent }
\citation{ReNew2017}
\citation{ParisClimate2015}
\citation{Nordhaus1994}
\citation{WorldBank2017}
\citation{PowerPack2017}
\@writefile{toc}{\contentsline {section}{\numberline {3}Budget -- Total Funding Requested: $\$4,250$}{2}{section.3}\protected@file@percent }
\bibdata{OID940Bib}
\bibcite{CARPS2015}{{1}{2015}{{Bill}}{{}}}
\bibcite{EEG2016}{{2}{2016}{{Bundestag}}{{}}}
\bibcite{ParisClimate2015}{{3}{2015}{{Commission et~al.}}{{}}}
\bibcite{WorldBank2017}{{4}{2017}{{Group}}{{}}}
\bibcite{ReNew2017}{{5}{2017}{{IRENA}}{{}}}
\bibcite{PowerPack2017}{{6}{2017}{{Koziol}}{{}}}
\bibcite{Nordhaus1994}{{7}{1994}{{Nordhaus}}{{}}}
\bibcite{China2018}{{8}{2018}{{Shen}}{{}}}
\@writefile{toc}{\contentsline {section}{\numberline {4}Timeline}{3}{section.4}\protected@file@percent }
