\relax 
\@writefile{toc}{\contentsline {section}{\numberline {1}Research Question(s)}{1}\protected@file@percent }
\@writefile{toc}{\contentsline {section}{\numberline {2}Motivation}{1}\protected@file@percent }
\@writefile{toc}{\contentsline {section}{\numberline {3}Model}{1}\protected@file@percent }
\@writefile{toc}{\contentsline {section}{\numberline {4}Current status}{2}\protected@file@percent }
